<?xml version="1.0" encoding="utf-8"?>
<!-- Generator: Adobe Illustrator 19.1.0, SVG Export Plug-In . SVG Version: 6.00 Build 0)  -->
<svg version="1.1" id="Layer_1" xmlns="http://www.w3.org/2000/svg" xmlns:xlink="http://www.w3.org/1999/xlink" x="0px" y="0px"
	 viewBox="0 0 725.7 725.7" style="enable-background:new 0 0 725.7 725.7;" xml:space="preserve">
<style type="text/css">
	.st0{fill:#E53029;}
	.st1{fill:#FDD900;}
	.st2{fill:#66B44B;}
	.st3{fill:#FFFFFF;}
	.st4{fill:#377CF1;}
	.st5{fill:#0065AF;}
	.st6{fill:url(#path997_1_);}
	.st7{fill:url(#SVGID_1_);}
	.st8{fill:#EE7D2B;}
	.st9{fill:url(#path1351_1_);}
	.st10{fill:#E85C0C;}
	.st11{fill:url(#path11_1_);}
	.st12{fill:url(#path12_1_);}
	.st13{fill:url(#path14_1_);}
	.st14{fill:url(#path15_1_);}
	.st15{fill:url(#path16_1_);}
	.st16{fill:url(#path17_1_);}
	.st17{fill:url(#path20_1_);}
	.st18{fill:url(#path21_1_);}
	.st19{fill:#12110C;}
	.st20{fill:url(#path24_1_);}
	.st21{fill:url(#path28_1_);}
	.st22{fill:url(#path30_1_);}
	.st23{fill:url(#path31_1_);}
	.st24{fill:url(#path32_1_);}
	.st25{fill:url(#path33_1_);}
	.st26{fill:url(#path34_1_);}
	.st27{fill:url(#path37_1_);}
	.st28{fill:url(#path38_1_);}
	.st29{fill:url(#path39_1_);}
	.st30{fill:url(#path40_1_);}
	.st31{fill:url(#path41_1_);}
	.st32{fill:url(#path42_1_);}
	.st33{fill:url(#path43_1_);}
	.st34{fill:url(#path18_1_);}
	.st35{fill:url(#path8_1_);}
	.st36{fill:url(#path13_1_);}
	.st37{fill:url(#path36_1_);}
	.st38{fill:#F8B133;}
	.st39{clip-path:url(#SVGID_3_);}
	.st40{clip-path:url(#SVGID_5_);fill:#868686;}
	.st41{opacity:0.32;clip-path:url(#SVGID_7_);}
	.st42{clip-path:url(#SVGID_9_);fill-rule:evenodd;clip-rule:evenodd;fill:#FFFFFF;}
	.st43{clip-path:url(#SVGID_7_);fill:#FFFFFF;}
	.st44{clip-path:url(#SVGID_11_);}
	.st45{clip-path:url(#SVGID_13_);fill:#D9D9D9;}
	.st46{opacity:0.32;clip-path:url(#SVGID_15_);}
	.st47{clip-path:url(#SVGID_17_);fill-rule:evenodd;clip-rule:evenodd;fill:#FFFFFF;}
	.st48{clip-path:url(#SVGID_19_);}
	.st49{clip-path:url(#SVGID_22_);fill:url(#SVGID_23_);}
	.st50{opacity:0.32;clip-path:url(#SVGID_25_);}
	.st51{clip-path:url(#SVGID_27_);fill-rule:evenodd;clip-rule:evenodd;fill:#FFFFFF;}
	.st52{clip-path:url(#SVGID_29_);}
	.st53{clip-path:url(#SVGID_31_);fill:#868686;}
	.st54{opacity:0.32;clip-path:url(#SVGID_33_);}
	.st55{clip-path:url(#SVGID_35_);fill-rule:evenodd;clip-rule:evenodd;fill:#FFFFFF;}
	.st56{clip-path:url(#SVGID_37_);}
	.st57{clip-path:url(#SVGID_40_);fill:url(#SVGID_41_);}
	.st58{opacity:0.32;clip-path:url(#SVGID_43_);}
	.st59{clip-path:url(#SVGID_45_);fill-rule:evenodd;clip-rule:evenodd;fill:#FFFFFF;}
	.st60{clip-path:url(#SVGID_47_);}
	.st61{clip-path:url(#SVGID_50_);fill:url(#SVGID_51_);}
	.st62{opacity:0.32;clip-path:url(#SVGID_53_);}
	.st63{clip-path:url(#SVGID_55_);fill-rule:evenodd;clip-rule:evenodd;fill:#FFFFFF;}
	.st64{clip-path:url(#SVGID_57_);}
	.st65{clip-path:url(#SVGID_59_);fill:#F8B133;}
	.st66{opacity:0.32;clip-path:url(#SVGID_61_);}
	.st67{clip-path:url(#SVGID_63_);fill-rule:evenodd;clip-rule:evenodd;fill:#FFFFFF;}
	.st68{fill:#1C71B7;}
	.st69{fill-rule:evenodd;clip-rule:evenodd;fill:#FFFFFF;}
	.st70{clip-path:url(#SVGID_65_);}
	.st71{clip-path:url(#SVGID_68_);fill:url(#SVGID_69_);}
	.st72{opacity:0.32;clip-path:url(#SVGID_71_);}
	.st73{clip-path:url(#SVGID_73_);fill-rule:evenodd;clip-rule:evenodd;fill:#FFFFFF;}
	.st74{fill:#CA4025;}
	.st75{fill-rule:evenodd;clip-rule:evenodd;fill:#265D9C;}
	.st76{fill-rule:evenodd;clip-rule:evenodd;fill:#20744A;}
	.st77{fill-rule:evenodd;clip-rule:evenodd;fill:url(#SVGID_74_);}
	.st78{fill-rule:evenodd;clip-rule:evenodd;fill:#F8B133;}
	.st79{clip-path:url(#SVGID_76_);}
	.st80{clip-path:url(#SVGID_78_);fill:#D9D9D9;}
	.st81{opacity:0.32;clip-path:url(#SVGID_80_);}
	.st82{clip-path:url(#SVGID_82_);fill-rule:evenodd;clip-rule:evenodd;fill:#FFFFFF;}
	.st83{fill-rule:evenodd;clip-rule:evenodd;fill:#75AD1E;}
	.st84{clip-path:url(#SVGID_84_);}
	.st85{clip-path:url(#SVGID_86_);fill:#D9D9D9;}
	.st86{opacity:0.32;clip-path:url(#SVGID_88_);}
	.st87{clip-path:url(#SVGID_90_);fill-rule:evenodd;clip-rule:evenodd;fill:#FFFFFF;}
	.st88{fill-rule:evenodd;clip-rule:evenodd;fill:#F25353;}
	.st89{clip-path:url(#SVGID_92_);}
	.st90{clip-path:url(#SVGID_94_);fill:#D9D9D9;}
	.st91{opacity:0.32;clip-path:url(#SVGID_96_);}
	.st92{clip-path:url(#SVGID_98_);fill-rule:evenodd;clip-rule:evenodd;fill:#FFFFFF;}
	.st93{fill-rule:evenodd;clip-rule:evenodd;fill:#9C9B9B;}
</style>
<path class="st0" d="M360.2,44.1c0,0,187.5-8.4,286.9,180c-52.5,0-302.8,0-302.8,0s-57.2-1.9-106,67.5
	c-14.1,29.1-29.1,59.1-12.2,118.1C201.8,368.5,96.7,185.6,96.7,185.6S170.8,51.6,360.2,44.1z"/>
<path class="st1" d="M637.4,522.5c0,0-86.5,166.6-299.4,158.4c26.3-45.5,151.5-262.3,151.5-262.3s30.2-48.6-5.5-125.5
	c-18.1-26.7-36.6-54.7-96.2-69.6c47.9-0.5,258.8,0,258.8,0S725.6,354.8,637.4,522.5z"/>
<path class="st2" d="M84.4,523.8c0,0-101-158.2,12.5-338.5c26.2,45.5,151.4,262.3,151.4,262.3s27,50.5,111.4,58
	c32.2-2.3,65.7-4.4,108.4-48.5c-23.6,41.7-129.4,224.1-129.4,224.1S185.6,684.1,84.4,523.8z"/>
<path class="st3" d="M217.5,365.2c0-78.4,63.5-141.9,141.9-141.9c78.4,0,141.9,63.5,141.9,141.9c0,78.4-63.5,141.9-141.9,141.9
	C281.1,507.1,217.5,443.6,217.5,365.2z"/>
<path class="st4" d="M241.3,365.2c0-65.2,52.9-118.1,118.1-118.1c65.2,0,118.1,52.9,118.1,118.1c0,65.2-52.9,118.1-118.1,118.1
	C294.2,483.4,241.3,430.5,241.3,365.2z"/>
</svg>
