<?xml version="1.0" encoding="utf-8"?>
<!-- Generator: Adobe Illustrator 19.1.0, SVG Export Plug-In . SVG Version: 6.00 Build 0)  -->
<svg version="1.1" id="Layer_1" xmlns="http://www.w3.org/2000/svg" xmlns:xlink="http://www.w3.org/1999/xlink" x="0px" y="0px"
	 viewBox="0 0 725.7 725.7" style="enable-background:new 0 0 725.7 725.7;" xml:space="preserve">
<style type="text/css">
	.st0{fill:#E53029;}
	.st1{fill:#FDD900;}
	.st2{fill:#66B44B;}
	.st3{fill:#FFFFFF;}
	.st4{fill:#377CF1;}
	.st5{fill:#0065AF;}
	.st6{fill:url(#path997_1_);}
	.st7{fill:url(#SVGID_1_);}
	.st8{fill:#EE7D2B;}
	.st9{fill:url(#path1351_1_);}
	.st10{fill:#E85C0C;}
	.st11{fill:url(#path11_1_);}
	.st12{fill:url(#path12_1_);}
	.st13{fill:url(#path14_1_);}
	.st14{fill:url(#path15_1_);}
	.st15{fill:url(#path16_1_);}
	.st16{fill:url(#path17_1_);}
	.st17{fill:url(#path20_1_);}
	.st18{fill:url(#path21_1_);}
	.st19{fill:#12110C;}
	.st20{fill:url(#path24_1_);}
	.st21{fill:url(#path28_1_);}
	.st22{fill:url(#path30_1_);}
	.st23{fill:url(#path31_1_);}
	.st24{fill:url(#path32_1_);}
	.st25{fill:url(#path33_1_);}
	.st26{fill:url(#path34_1_);}
	.st27{fill:url(#path37_1_);}
	.st28{fill:url(#path38_1_);}
	.st29{fill:url(#path39_1_);}
	.st30{fill:url(#path40_1_);}
	.st31{fill:url(#path41_1_);}
	.st32{fill:url(#path42_1_);}
	.st33{fill:url(#path43_1_);}
	.st34{fill:url(#path18_1_);}
	.st35{fill:url(#path8_1_);}
	.st36{fill:url(#path13_1_);}
	.st37{fill:url(#path36_1_);}
	.st38{fill:#868686;}
	.st39{fill:url(#SVGID_2_);}
	.st40{clip-path:url(#SVGID_4_);}
	.st41{clip-path:url(#SVGID_6_);fill:#868686;}
	.st42{opacity:0.32;clip-path:url(#SVGID_8_);}
	.st43{clip-path:url(#SVGID_10_);fill-rule:evenodd;clip-rule:evenodd;fill:#FFFFFF;}
	.st44{clip-path:url(#SVGID_8_);fill:#FFFFFF;}
	.st45{clip-path:url(#SVGID_12_);}
	.st46{clip-path:url(#SVGID_14_);fill:#D9D9D9;}
	.st47{opacity:0.32;clip-path:url(#SVGID_16_);}
	.st48{clip-path:url(#SVGID_18_);fill-rule:evenodd;clip-rule:evenodd;fill:#FFFFFF;}
	.st49{clip-path:url(#SVGID_20_);}
	.st50{clip-path:url(#SVGID_23_);fill:url(#SVGID_24_);}
	.st51{opacity:0.32;clip-path:url(#SVGID_26_);}
	.st52{clip-path:url(#SVGID_28_);fill-rule:evenodd;clip-rule:evenodd;fill:#FFFFFF;}
	.st53{clip-path:url(#SVGID_30_);}
	.st54{clip-path:url(#SVGID_32_);fill:#868686;}
	.st55{opacity:0.32;clip-path:url(#SVGID_34_);}
	.st56{clip-path:url(#SVGID_36_);fill-rule:evenodd;clip-rule:evenodd;fill:#FFFFFF;}
	.st57{clip-path:url(#SVGID_38_);}
	.st58{clip-path:url(#SVGID_41_);fill:url(#SVGID_42_);}
	.st59{opacity:0.32;clip-path:url(#SVGID_44_);}
	.st60{clip-path:url(#SVGID_46_);fill-rule:evenodd;clip-rule:evenodd;fill:#FFFFFF;}
	.st61{clip-path:url(#SVGID_48_);}
	.st62{clip-path:url(#SVGID_51_);fill:url(#SVGID_52_);}
	.st63{opacity:0.32;clip-path:url(#SVGID_54_);}
	.st64{clip-path:url(#SVGID_56_);fill-rule:evenodd;clip-rule:evenodd;fill:#FFFFFF;}
	.st65{clip-path:url(#SVGID_58_);}
	.st66{clip-path:url(#SVGID_60_);fill:#F8B133;}
	.st67{opacity:0.32;clip-path:url(#SVGID_62_);}
	.st68{clip-path:url(#SVGID_64_);fill-rule:evenodd;clip-rule:evenodd;fill:#FFFFFF;}
	.st69{fill:#1C71B7;}
	.st70{fill-rule:evenodd;clip-rule:evenodd;fill:#FFFFFF;}
	.st71{clip-path:url(#SVGID_66_);}
	.st72{clip-path:url(#SVGID_69_);fill:url(#SVGID_70_);}
	.st73{opacity:0.32;clip-path:url(#SVGID_72_);}
	.st74{clip-path:url(#SVGID_74_);fill-rule:evenodd;clip-rule:evenodd;fill:#FFFFFF;}
	.st75{fill:#CA4025;}
	.st76{fill-rule:evenodd;clip-rule:evenodd;fill:#265D9C;}
	.st77{fill-rule:evenodd;clip-rule:evenodd;fill:#20744A;}
	.st78{fill-rule:evenodd;clip-rule:evenodd;fill:url(#SVGID_75_);}
	.st79{fill-rule:evenodd;clip-rule:evenodd;fill:#F8B133;}
	.st80{clip-path:url(#SVGID_77_);}
	.st81{clip-path:url(#SVGID_79_);fill:#D9D9D9;}
	.st82{opacity:0.32;clip-path:url(#SVGID_81_);}
	.st83{clip-path:url(#SVGID_83_);fill-rule:evenodd;clip-rule:evenodd;fill:#FFFFFF;}
	.st84{fill-rule:evenodd;clip-rule:evenodd;fill:#75AD1E;}
	.st85{clip-path:url(#SVGID_85_);}
	.st86{clip-path:url(#SVGID_87_);fill:#D9D9D9;}
	.st87{opacity:0.32;clip-path:url(#SVGID_89_);}
	.st88{clip-path:url(#SVGID_91_);fill-rule:evenodd;clip-rule:evenodd;fill:#FFFFFF;}
	.st89{fill-rule:evenodd;clip-rule:evenodd;fill:#F25353;}
	.st90{clip-path:url(#SVGID_93_);}
	.st91{clip-path:url(#SVGID_95_);fill:#D9D9D9;}
	.st92{opacity:0.32;clip-path:url(#SVGID_97_);}
	.st93{clip-path:url(#SVGID_99_);fill-rule:evenodd;clip-rule:evenodd;fill:#FFFFFF;}
	.st94{fill-rule:evenodd;clip-rule:evenodd;fill:#9C9B9B;}
	.st95{fill:url(#SVGID_100_);}
	.st96{fill:url(#SVGID_101_);}
	.st97{fill:url(#SVGID_102_);}
	.st98{fill:url(#SVGID_103_);}
	.st99{fill:url(#SVGID_104_);}
	.st100{fill:url(#SVGID_105_);}
	.st101{fill:url(#SVGID_106_);}
	.st102{fill:url(#SVGID_107_);}
	.st103{fill:url(#SVGID_108_);}
	.st104{fill:url(#SVGID_109_);}
	.st105{opacity:0.5;fill:url(#SVGID_110_);}
	.st106{opacity:0.4;fill:url(#SVGID_111_);enable-background:new    ;}
	.st107{fill:url(#SVGID_112_);}
	.st108{clip-path:url(#SVGID_116_);fill:url(#SVGID_117_);}
	.st109{opacity:0.6;clip-path:url(#SVGID_116_);fill:url(#SVGID_118_);}
	.st110{fill:#8DD7F7;}
	.st111{fill:url(#SVGID_119_);}
	.st112{fill:url(#SVGID_120_);}
	.st113{fill:url(#SVGID_121_);}
	.st114{fill:url(#SVGID_122_);}
	.st115{fill:url(#SVGID_123_);}
	.st116{fill:url(#SVGID_124_);}
	.st117{fill:url(#SVGID_125_);}
	.st118{fill:url(#SVGID_126_);}
	.st119{fill:url(#SVGID_127_);}
	.st120{fill:url(#SVGID_128_);}
	.st121{fill:url(#SVGID_129_);}
	.st122{fill:url(#SVGID_130_);}
	.st123{fill:url(#SVGID_131_);}
	.st124{fill:url(#SVGID_132_);}
	.st125{fill:url(#SVGID_133_);}
	.st126{fill:url(#SVGID_134_);}
	.st127{fill:url(#SVGID_135_);}
	.st128{fill:url(#SVGID_136_);}
	.st129{opacity:0.1;fill:url(#SVGID_137_);}
	.st130{opacity:0.5;fill:url(#SVGID_138_);}
	.st131{opacity:0.5;fill:url(#SVGID_139_);}
	.st132{opacity:0.5;fill:url(#SVGID_140_);}
	.st133{fill:url(#SVGID_141_);}
	.st134{opacity:0.1;fill:url(#SVGID_142_);}
	.st135{fill:url(#SVGID_143_);}
	.st136{fill:#1D70B7;}
	.st137{fill:url(#SVGID_144_);}
	.st138{fill:url(#SVGID_145_);}
	.st139{fill:#F8B133;}
	.st140{fill:url(#SVGID_146_);}
	.st141{fill:#0CB3EE;}
	.st142{fill:#75AD1E;}
	.st143{fill:#F25353;}
	.st144{fill:#D9D9D9;}
</style>
<circle class="st141" cx="362.8" cy="362.8" r="306.9"/>
<g>
	<polygon class="st3" points="499.9,356.6 499.9,223.8 347.3,246 347.3,356.6 	"/>
	<polygon class="st3" points="336.6,247.6 225.7,263.8 225.7,356.6 336.6,356.6 	"/>
	<polygon class="st3" points="225.7,367.4 225.7,461.4 336.6,477.8 336.6,367.4 	"/>
	<polygon class="st3" points="347.3,479.4 499.9,501.9 499.9,367.4 347.3,367.4 	"/>
</g>
</svg>
